{
  "swagger": "2.0",
  "info": {
    "title": "geo.proto",
    "version": "version not set"
  },
  "tags": [
    {
      "name": "BikeParkGeoSearch"
    }
  ],
  "consumes": [
    "application/json"
  ],
  "produces": [
    "application/json"
  ],
  "paths": {
    "/api/v1/geolocations": {
      "get": {
        "operationId": "BikeParkGeoSearch_SearchGeoLocation",
        "responses": {
          "200": {
            "description": "A successful response.",
            "schema": {
              "$ref": "#/definitions/v1SearchGeoLocationResponse"
            }
          },
          "default": {
            "description": "An unexpected error response.",
            "schema": {
              "$ref": "#/definitions/rpcStatus"
            }
          }
        },
        "parameters": [
          {
            "name": "filter.address",
            "in": "query",
            "required": false,
            "type": "string"
          }
        ],
        "tags": [
          "BikeParkGeoSearch"
        ]
      }
    },
    "/api/v1/geolocations:reverse": {
      "get": {
        "operationId": "BikeParkGeoSearch_ReverseGeoLocation",
        "responses": {
          "200": {
            "description": "A successful response.",
            "schema": {
              "$ref": "#/definitions/v1GeoLocation"
            }
          },
          "default": {
            "description": "An unexpected error response.",
            "schema": {
              "$ref": "#/definitions/rpcStatus"
            }
          }
        },
        "parameters": [
          {
            "name": "filter.latitude",
            "in": "query",
            "required": false,
            "type": "number",
            "format": "double"
          },
          {
            "name": "filter.longitude",
            "in": "query",
            "required": false,
            "type": "number",
            "format": "double"
          }
        ],
        "tags": [
          "BikeParkGeoSearch"
        ]
      }
    }
  },
  "definitions": {
    "protobufAny": {
      "type": "object",
      "properties": {
        "@type": {
          "type": "string"
        }
      },
      "additionalProperties": {}
    },
    "rpcStatus": {
      "type": "object",
      "properties": {
        "code": {
          "type": "integer",
          "format": "int32"
        },
        "message": {
          "type": "string"
        },
        "details": {
          "type": "array",
          "items": {
            "$ref": "#/definitions/protobufAny"
          }
        }
      }
    },
    "v1AddressSearchFilter": {
      "type": "object",
      "properties": {
        "address": {
          "type": "string"
        }
      }
    },
    "v1GeoLocation": {
      "type": "object",
      "properties": {
        "address": {
          "type": "string"
        },
        "city": {
          "type": "string"
        },
        "latitude": {
          "type": "number",
          "format": "double"
        },
        "longitude": {
          "type": "number",
          "format": "double"
        },
        "displayName": {
          "type": "string"
        }
      }
    },
    "v1ReverseSearchFilter": {
      "type": "object",
      "properties": {
        "latitude": {
          "type": "number",
          "format": "double"
        },
        "longitude": {
          "type": "number",
          "format": "double"
        }
      }
    },
    "v1SearchGeoLocationResponse": {
      "type": "object",
      "properties": {
        "locations": {
          "type": "array",
          "items": {
            "$ref": "#/definitions/v1GeoLocation"
          }
        }
      }
    }
  }
}
